A collection of sf objects and related tibbles for making maps of New York City • nycmaps
…
Zip Codes (ZCTAs)

nyc_zips
#> # A tibble: 255 × 7
#>    zip   boro_name city_name county_name     long_county_name  short_county_name
#>    <chr> <chr>     <chr>     <chr>           <chr>             <chr>            
#>  1 10001 Manhattan New York  New York County New York County,… New York         
#>  2 10002 Manhattan New York  New York County New York County,… New York         
#>  3 10003 Manhattan New York  New York County New York County,… New York         
#>  4 10004 Manhattan New York  New York County New York County,… New York         
#>  5 10005 Manhattan New York  New York County New York County,… New York         
#>  6 10006 Manhattan New York  New York County New York County,… New York         
#>  7 10007 Manhattan New York  New York County New York County,… New York         
#>  8 10009 Manhattan New York  New York County New York County,… New York         
#>  9 10010 Manhattan New York  New York County New York County,… New York         
#> 10 10011 Manhattan New York  New York County New York County,… New York         
#> # ℹ 245 more rows
#> # ℹ 1 more variable: po_name <chr>
…
Census Tract Population Proportions 2010-2020

nyc_ct_pop_proportion_2010_2020_df
#> # A tibble: 2,416 × 8
#>    boro_code county_fips boro_name bct2020 fipsct2020 bct2010 fipsct2010
#>        <dbl> <chr>       <chr>     <chr>   <chr>      <chr>   <chr>     
#>  1         2 005         Bronx     2000100 005000100  2000100 005000100 
#>  2         2 005         Bronx     2000200 005000200  2000200 005000200 
#>  3         2 005         Bronx     2000400 005000400  2000400 005000400 
#>  4         2 005         Bronx     2001600 005001600  2001600 005001600 
#>  5         2 005         Bronx     2001901 005001901  2001900 005001900 
#>  6         2 005         Bronx     2001902 005001902  2001900 005001900 
#>  7         2 005         Bronx     2001903 005001903  2001900 005001900 
#>  8         2 005         Bronx     2001904 005001904  2001900 005001900 
#>  9         2 005         Bronx     2002001 005002001  2002000 005002000 
#> 10         2 005         Bronx     2002002 005002002  2002000 005002000 
#> # ℹ 2,406 more rows
#> # ℹ 1 more variable: prptn10t20 <dbl>

Census Block Relationships 2020

nyc_census_block_relationships_2020_df
#> # A tibble: 37,984 × 17
#>    geoid   county_fips boro_code boro_name bctcb2020 cb2020 cb_label boro_ct2020
#>    <chr>   <chr>           <dbl> <chr>     <chr>      <dbl> <chr>    <chr>      
#>  1 360811… 081                 4 Queens    41085001…   1000 Block 1… 4108500    
#>  2 360811… 081                 4 Queens    41085001…   1001 Block 1… 4108500    
#>  3 360811… 081                 4 Queens    41085001…   1002 Block 1… 4108500    
#>  4 360811… 081                 4 Queens    41085001…   1003 Block 1… 4108500    
#>  5 360811… 081                 4 Queens    41085001…   1004 Block 1… 4108500    
#>  6 360811… 081                 4 Queens    41085001…   1005 Block 1… 4108500    
#>  7 360811… 081                 4 Queens    41085001…   1006 Block 1… 4108500    
#>  8 360811… 081                 4 Queens    41085001…   1007 Block 1… 4108500    
#>  9 360811… 081                 4 Queens    41085001…   1008 Block 1… 4108500    
#> 10 360811… 081                 4 Queens    41085001…   1009 Block 1… 4108500    
#> # ℹ 37,974 more rows
#> # ℹ 9 more variables: ct2020 <chr>, ct_label <chr>, nta_code <chr>,
#> #   nta_type <dbl>, nta_name <chr>, nta_abbrev <chr>, cdta_code <chr>,
#> #   cdta_type <chr>, cdta_name <chr>

Census Tract to City Council District Relationships 2023

nyc_ct_ccd_relationships_2023_df
#> # A tibble: 2,327 × 8
#>    geoid     county_fips boro_code boro_name boro_ct2020 ct2020 ct_label ccd2023
#>    <chr>     <chr>           <dbl> <chr>           <dbl> <chr>  <chr>    <chr>  
#>  1 36005001… 005                 2 Bronx         2001901 001901 19.01    08     
#>  2 36005001… 005                 2 Bronx         2001902 001902 19.02    08     
#>  3 36005001… 005                 2 Bronx         2001903 001903 19.03    08     
#>  4 36005002… 005                 2 Bronx         2002300 002300 23       08     
#>  5 36005002… 005                 2 Bronx         2002500 002500 25       08     
#>  6 36005002… 005                 2 Bronx         2002701 002701 27.01    08     
#>  7 36005002… 005                 2 Bronx         2002702 002702 27.02    08     
#>  8 36005003… 005                 2 Bronx         2003100 003100 31       08     
#>  9 36005003… 005                 2 Bronx         2003300 003300 33       08     
#> 10 36005003… 005                 2 Bronx         2003500 003500 35       08     
#> # ℹ 2,317 more rows

Census Tract Relationships 2020

nyc_census_tract_relationships_2020_df
#> # A tibble: 2,327 × 14
#>    geoid    county_fips boro_code boro_name boro_ct2020 ct2020 ct_label nta_code
#>    <chr>    <chr>           <dbl> <chr>     <chr>       <chr>  <chr>    <chr>   
#>  1 3600500… 005                 2 Bronx     2001901     001901 19.01    BX0101  
#>  2 3600500… 005                 2 Bronx     2001902     001902 19.02    BX0101  
#>  3 3600500… 005                 2 Bronx     2001903     001903 19.03    BX0101  
#>  4 3600500… 005                 2 Bronx     2002300     002300 23       BX0101  
#>  5 3600500… 005                 2 Bronx     2002500     002500 25       BX0101  
#>  6 3600500… 005                 2 Bronx     2002701     002701 27.01    BX0101  
#>  7 3600500… 005                 2 Bronx     2002702     002702 27.02    BX0101  
#>  8 3600500… 005                 2 Bronx     2003100     003100 31       BX0101  
#>  9 3600500… 005                 2 Bronx     2003300     003300 33       BX0101  
#> 10 3600500… 005                 2 Bronx     2003500     003500 35       BX0101  
#> # ℹ 2,317 more rows
#> # ℹ 6 more variables: nta_type <dbl>, nta_name <chr>, nta_abbrev <chr>,
#> #   cdta_code <chr>, cdta_type <chr>, cdta_name <chr>
…
