…
``` r
ggplot(nyc_boros_sf) +
  geom_sf() +
  theme_void()
```

<img src="man/figures/README-unnamed-chunk-4-1.png" width="100%" />

## Zip Codes (ZCTAs)

``` r
nyc_zips
#> # A tibble: 255 × 7
#>    zip   boro_name city_name county_name     long_county_name  short_county_name
#>    <chr> <chr>     <chr>     <chr>           <chr>             <chr>            
#>  1 10001 Manhattan New York  New York County New York County,… New York         
#>  2 10002 Manhattan New York  New York County New York County,… New York         
#>  3 10003 Manhattan New York  New York County New York County,… New York         
#>  4 10004 Manhattan New York  New York County New York County,… New York         
#>  5 10005 Manhattan New York  New York County New York County,… New York         
#>  6 10006 Manhattan New York  New York County New York County,… New York         
#>  7 10007 Manhattan New York  New York County New York County,… New York         
#>  8 10009 Manhattan New York  New York County New York County,… New York         
#>  9 10010 Manhattan New York  New York County New York County,… New York         
#> 10 10011 Manhattan New York  New York County New York County,… New York         
#> # ℹ 245 more rows
#> # ℹ 1 more variable: po_name <chr>
…
``` r
ggplot(nyc_nta10_sf) +
  geom_sf() +
  theme_void()
```

<img src="man/figures/README-unnamed-chunk-9-1.png" width="100%" />

### NTA 2020

``` r
nyc_nta20_sf
#> Simple feature collection with 262 features and 11 fields
#> Geometry type: MULTIPOLYGON
#> Dimension:     XY
#> Bounding box:  xmin: 913175.1 ymin: 120128.4 xmax: 1067383 ymax: 272844.3
#> Projected CRS: NAD83 / New York Long Island (ftUS)
#> First 10 features:
#>   boro_code boro_name county_fips nta2020                            nta_name
#> 1         3  Brooklyn         047  BK0101                          Greenpoint
#> 2         3  Brooklyn         047  BK0102                        Williamsburg
#> 3         3  Brooklyn         047  BK0103                  South Williamsburg
#> 4         3  Brooklyn         047  BK0104                   East Williamsburg
#> 5         3  Brooklyn         047  BK0201                    Brooklyn Heights
#> 6         3  Brooklyn         047  BK0202 Downtown Brooklyn-DUMBO-Boerum Hill
#> 7         3  Brooklyn         047  BK0203                         Fort Greene
#> 8         3  Brooklyn         047  BK0204                        Clinton Hill
#>   nta_abbrev nta_type cdta2020
#> 1      Grnpt        0     BK01
#> 2   Wllmsbrg        0     BK01
#> 3  SWllmsbrg        0     BK01
#> 4  EWllmsbrg        0     BK01
#> 5      BkHts        0     BK02
#> 6   DwntwnBk        0     BK02
#> 7      FtGrn        0     BK02
#> 8    ClntnHl        0     BK02
#>                                                 cdta_name shape_leng shape_area
#> 1          BK01 Williamsburg-Greenpoint (CD 1 Equivalent)   28919.56   35321809
#> 2          BK01 Williamsburg-Greenpoint (CD 1 Equivalent)   28134.08   28852853
#> 3          BK01 Williamsburg-Greenpoint (CD 1 Equivalent)   18250.28   15208961
#> 4          BK01 Williamsburg-Greenpoint (CD 1 Equivalent)   43184.80   52267408
#> 5 BK02 Downtown Brooklyn-Fort Greene (CD 2 Approximation)   14312.19    9982023
#> 6 BK02 Downtown Brooklyn-Fort Greene (CD 2 Approximation)   30589.24   23731597
#> 7 BK02 Downtown Brooklyn-Fort Greene (CD 2 Approximation)   23284.59   17533714
#> 8 BK02 Downtown Brooklyn-Fort Greene (CD 2 Approximation)   18102.97   14566585
#>                         geometry
#> 1 MULTIPOLYGON (((1003060 204...
#> 2 MULTIPOLYGON (((995851.9 20...
#> 3 MULTIPOLYGON (((998047.2 19...
#> 4 MULTIPOLYGON (((1005302 199...
#> 5 MULTIPOLYGON (((986367.7 19...
#> 6 MULTIPOLYGON (((990056.4 19...
#> 7 MULTIPOLYGON (((994554.2 19...
#> 8 MULTIPOLYGON (((994971 1871...
#>  [ reached 'max' / getOption("max.print") -- omitted 2 rows ]
```
…
``` r
ggplot(nyc_fire_companies_sf) +
  geom_sf() +
  theme_void()
```

<img src="man/figures/README-unnamed-chunk-35-1.png" width="100%" />

## Census Tracts

### Census Tracts 2000

``` r
nyc_census_tracts_2000_sf
#> Simple feature collection with 2216 features and 11 fields
#> Geometry type: MULTIPOLYGON
#> Dimension:     XY
#> Bounding box:  xmin: 913175.1 ymin: 120121.9 xmax: 1067383 ymax: 272844.3
#> Projected CRS: NAD83 / New York Long Island (ftUS)
#> First 10 features:
#>   ct_label boro_code boro_name ct2000 boro_ct2000 cd_eligibil nta_code
#> 1       98         1 Manhattan 009800     1009800           I     MN19
#> 2      190         1 Manhattan 019000     1019000           E     MN11
#> 3      206         1 Manhattan 020600     1020600           E     MN03
#> 4   231.02         1 Manhattan 023102     1023102           E     MN03
#> 5      249         1 Manhattan 024900     1024900           E     MN36
#> 6      263         1 Manhattan 026300     1026300           E     MN36
#> 7      269         1 Manhattan 026900     1026900           E     MN35
#> 8      277         1 Manhattan 027700     1027700           E     MN35
#>                            ntan_ame puma shape_leng shape_area
#> 1           Turtle Bay-East Midtown 3808   5534.200  1906016.4
#> 2              Central Harlem South 3803   4231.827  1117371.7
#> 3 Central Harlem North-Polo Grounds 3803   5176.873  1602693.8
#> 4 Central Harlem North-Polo Grounds 3803   3267.741   413467.6
#> 5          Washington Heights South 3801   3927.822   652856.5
#> 6          Washington Heights South 3801   5730.542  1691892.0
#> 7          Washington Heights North 3801   6017.037  1889655.8
#> 8          Washington Heights North 3801   5903.153  1760156.1
#>                         geometry
#> 1 MULTIPOLYGON (((994133.5 21...
#> 2 MULTIPOLYGON (((999462.8 23...
#> 3 MULTIPOLYGON (((1002020 234...
#> 4 MULTIPOLYGON (((1000966 240...
#> 5 MULTIPOLYGON (((1001768 244...
#> 6 MULTIPOLYGON (((1002443 248...
#> 7 MULTIPOLYGON (((1004253 249...
#> 8 MULTIPOLYGON (((1004253 249...
#>  [ reached 'max' / getOption("max.print") -- omitted 2 rows ]
```

``` r
ggplot(nyc_census_tracts_2000_sf) +
  geom_sf() +
  theme_void()
```

<img src="man/figures/README-unnamed-chunk-37-1.png" width="100%" />

### Census Tracts 2010

``` r
nyc_census_tracts_2010_sf
#> Simple feature collection with 2165 features and 11 fields
#> Geometry type: MULTIPOLYGON
#> Dimension:     XY
#> Bounding box:  xmin: 913175.1 ymin: 120128.4 xmax: 1067383 ymax: 272844.3
#> Projected CRS: NAD83 / New York Long Island (ftUS)
#> First 10 features:
#>   ct_label boro_code     boro_name ct2010 boro_ct2010 cd_eligibil nta_code
#> 1        9         5 Staten Island 000900     5000900           E     SI22
#> 2      102         1     Manhattan 010200     1010200           I     MN17
#> 3      104         1     Manhattan 010400     1010400           I     MN17
#> 4      113         1     Manhattan 011300     1011300           I     MN17
#> 5      130         1     Manhattan 013000     1013000           I     MN40
#> 6      184         1     Manhattan 018400     1018400           E     MN34
#> 7      206         1     Manhattan 020600     1020600           E     MN03
#> 8      249         1     Manhattan 024900     1024900           I     MN36
#>                                    nta_name puma shape_leng shape_area
#> 1 West New Brighton-New Brighton-St. George 3903   7729.017  2497009.7
#> 2                     Midtown-Midtown South 3807   5687.802  1860992.7
#> 3                     Midtown-Midtown South 3807   5693.036  1864600.4
#> 4                     Midtown-Midtown South 3807   5699.861  1890907.3
#> 5             Upper East Side-Carnegie Hill 3805   5807.973  1918144.6
#> 6                         East Harlem North 3804   5771.874  1903568.4
#> 7         Central Harlem North-Polo Grounds 3803   5176.873  1602693.8
#> 8                  Washington Heights South 3801   3927.822   652856.3
#>                         geometry
#> 1 MULTIPOLYGON (((962269.1 17...
#> 2 MULTIPOLYGON (((992216.5 21...
#> 3 MULTIPOLYGON (((991325.9 21...
#> 4 MULTIPOLYGON (((988650.3 21...
#> 5 MULTIPOLYGON (((994920.1 22...
#> 6 MULTIPOLYGON (((1000359 231...
#> 7 MULTIPOLYGON (((1002020 234...
#> 8 MULTIPOLYGON (((1001768 244...
#>  [ reached 'max' / getOption("max.print") -- omitted 2 rows ]
```

``` r
ggplot(nyc_census_tracts_2010_sf) +
  geom_sf() +
  theme_void()
```

<img src="man/figures/README-unnamed-chunk-39-1.png" width="100%" />

### Census Tracts 2020

``` r
nyc_census_tracts_2020_sf
#> Simple feature collection with 2325 features and 14 fields
#> Geometry type: MULTIPOLYGON
#> Dimension:     XY
#> Bounding box:  xmin: 913175.1 ymin: 120128.4 xmax: 1067383 ymax: 272844.3
#> Projected CRS: NAD83 / New York Long Island (ftUS)
#> First 10 features:
#>   ct_label boro_code boro_name ct2020 boro_ct2020 cd_eligibil
#> 1        1         1 Manhattan 000100     1000100           I
#> 2    14.01         1 Manhattan 001401     1001401           I
#> 3    14.02         1 Manhattan 001402     1001402           E
#> 4       18         1 Manhattan 001800     1001800           I
#> 5    22.01         1 Manhattan 002201     1002201           E
#> 6    26.02         1 Manhattan 002602     1002602           E
#>                                                   nta_name nta2020 cdta2020
#> 1 The Battery-Governors Island-Ellis Island-Liberty Island  MN0191     MN01
#> 2                                          Lower East Side  MN0302     MN03
#> 3                                          Lower East Side  MN0302     MN03
#> 4                                          Lower East Side  MN0302     MN03
#> 5                                          Lower East Side  MN0302     MN03
#> 6                                             East Village  MN0303     MN03
#>                                            cdtaname       geoid puma shape_leng
#> 1 MN01 Financial District-Tribeca (CD 1 Equivalent) 36061000100 4121  10833.044
#> 2  MN03 Lower East Side-Chinatown (CD 3 Equivalent) 36061001401 4103   5075.332
#> 3  MN03 Lower East Side-Chinatown (CD 3 Equivalent) 36061001402 4103   4459.156
#> 4  MN03 Lower East Side-Chinatown (CD 3 Equivalent) 36061001800 4103   6391.921
#> 5  MN03 Lower East Side-Chinatown (CD 3 Equivalent) 36061002201 4103   5779.063
#> 6  MN03 Lower East Side-Chinatown (CD 3 Equivalent) 36061002602 4103   4491.203
#>   shape_area                       geometry
#> 1    1843005 MULTIPOLYGON (((972081.8 19...
#> 2    1006117 MULTIPOLYGON (((987475 2002...
#> 3    1226206 MULTIPOLYGON (((988387.7 20...
#> 4    2399277 MULTIPOLYGON (((987062.3 20...
#> 5    1740174 MULTIPOLYGON (((990139.8 20...
#> 6    1114857 MULTIPOLYGON (((991015.1 20...
#>  [ reached 'max' / getOption("max.print") -- omitted 4 rows ]
```

``` r
ggplot(nyc_census_tracts_2020_sf) +
  geom_sf() +
  theme_void()
```

<img src="man/figures/README-unnamed-chunk-41-1.png" width="100%" />

## Atomic Polygons

``` r
nyc_atomic_polygons_sf
#> Simple feature collection with 69690 features and 29 fields
#> Geometry type: MULTIPOLYGON
#> Dimension:     XY
#> Bounding box:  xmin: 912287.1 ymin: 113279.3 xmax: 1067383 ymax: 273617.8
#> Projected CRS: NAD83 / New York Long Island (ftUS)
#> First 10 features:
#>   borough censusbloc censusbl_1 censustrac censusbl_2 censusbl_3 censustr_1
#> 1       5       4023       <NA>     024400       1020       <NA>     024401
#> 2       5       4030       <NA>     024400       2004       <NA>     024401
#> 3       5       2002          B     024400       1005       <NA>     024402
#>   censustr_2 admin_fire water_flag assemdist electdist schooldist commdist
#> 1     024400      E 151          2        62       002         31      503
#> 2     024400      E 151          2        62       006         31      503
#> 3     024400      E 151          2        62       004         31      503
#>   sb1_volume sb1_page sb2_volume sb2_page sb3_volume sb3_page   atomicid
#> 1         05      533       <NA>     <NA>       <NA>     <NA> 5024401430
#> 2         05      533       <NA>     <NA>       <NA>     <NA> 5024401439
#> 3         05      530         05      529       <NA>     <NA> 5024402223
#>   atomic_num hurricane censustr_3 censusbl_4 censusbl_5 commercial shape_leng
#> 1       <NA>         X     024401       1007       <NA>        SI1  2424.5604
#> 2       <NA>         X     024401       2010       <NA>        SI1  1722.9312
#> 3       <NA>         6     024402       1004       <NA>        SI1   770.0857
#>   shape_area                       geometry
#> 1  244110.62 MULTIPOLYGON (((916060.7 12...
#> 2  177042.35 MULTIPOLYGON (((917670.2 12...
#> 3   33790.84 MULTIPOLYGON (((920007.2 12...
#>  [ reached 'max' / getOption("max.print") -- omitted 7 rows ]
```

``` r
ggplot(nyc_atomic_polygons_sf) +
  geom_sf() +
  theme_void()
```

<img src="man/figures/README-unnamed-chunk-43-1.png" width="100%" />

## Census Tract Population Proportions 2010-2020

``` r
nyc_ct_pop_proportion_2010_2020_df
#> # A tibble: 2,416 × 8
#>    boro_code county_fips boro_name bct2020 fipsct2020 bct2010 fipsct2010
#>        <dbl> <chr>       <chr>     <chr>   <chr>      <chr>   <chr>     
#>  1         2 005         Bronx     2000100 005000100  2000100 005000100 
#>  2         2 005         Bronx     2000200 005000200  2000200 005000200 
#>  3         2 005         Bronx     2000400 005000400  2000400 005000400 
#>  4         2 005         Bronx     2001600 005001600  2001600 005001600 
#>  5         2 005         Bronx     2001901 005001901  2001900 005001900 
#>  6         2 005         Bronx     2001902 005001902  2001900 005001900 
#>  7         2 005         Bronx     2001903 005001903  2001900 005001900 
#>  8         2 005         Bronx     2001904 005001904  2001900 005001900 
#>  9         2 005         Bronx     2002001 005002001  2002000 005002000 
#> 10         2 005         Bronx     2002002 005002002  2002000 005002000 
#> # ℹ 2,406 more rows
#> # ℹ 1 more variable: prptn10t20 <dbl>
```

## Census Block Relationships 2020

``` r
nyc_census_block_relationships_2020_df
#> # A tibble: 37,984 × 17
#>    geoid   county_fips boro_code boro_name bctcb2020 cb2020 cb_label boro_ct2020
#>    <chr>   <chr>           <dbl> <chr>     <chr>      <dbl> <chr>    <chr>      
#>  1 360811… 081                 4 Queens    41085001…   1000 Block 1… 4108500    
#>  2 360811… 081                 4 Queens    41085001…   1001 Block 1… 4108500    
#>  3 360811… 081                 4 Queens    41085001…   1002 Block 1… 4108500    
#>  4 360811… 081                 4 Queens    41085001…   1003 Block 1… 4108500    
#>  5 360811… 081                 4 Queens    41085001…   1004 Block 1… 4108500    
#>  6 360811… 081                 4 Queens    41085001…   1005 Block 1… 4108500    
#>  7 360811… 081                 4 Queens    41085001…   1006 Block 1… 4108500    
#>  8 360811… 081                 4 Queens    41085001…   1007 Block 1… 4108500    
#>  9 360811… 081                 4 Queens    41085001…   1008 Block 1… 4108500    
#> 10 360811… 081                 4 Queens    41085001…   1009 Block 1… 4108500    
#> # ℹ 37,974 more rows
#> # ℹ 9 more variables: ct2020 <chr>, ct_label <chr>, nta_code <chr>,
#> #   nta_type <dbl>, nta_name <chr>, nta_abbrev <chr>, cdta_code <chr>,
#> #   cdta_type <chr>, cdta_name <chr>
```

## Census Tract to City Council District Relationships 2023

``` r
nyc_ct_ccd_relationships_2023_df
#> # A tibble: 2,327 × 8
#>    geoid     county_fips boro_code boro_name boro_ct2020 ct2020 ct_label ccd2023
#>    <chr>     <chr>           <dbl> <chr>           <dbl> <chr>  <chr>    <chr>  
#>  1 36005001… 005                 2 Bronx         2001901 001901 19.01    08     
#>  2 36005001… 005                 2 Bronx         2001902 001902 19.02    08     
#>  3 36005001… 005                 2 Bronx         2001903 001903 19.03    08     
#>  4 36005002… 005                 2 Bronx         2002300 002300 23       08     
#>  5 36005002… 005                 2 Bronx         2002500 002500 25       08     
#>  6 36005002… 005                 2 Bronx         2002701 002701 27.01    08     
#>  7 36005002… 005                 2 Bronx         2002702 002702 27.02    08     
#>  8 36005003… 005                 2 Bronx         2003100 003100 31       08     
#>  9 36005003… 005                 2 Bronx         2003300 003300 33       08     
#> 10 36005003… 005                 2 Bronx         2003500 003500 35       08     
#> # ℹ 2,317 more rows
```

## Census Tract Relationships 2020

``` r
nyc_census_tract_relationships_2020_df
#> # A tibble: 2,327 × 14
#>    geoid    county_fips boro_code boro_name boro_ct2020 ct2020 ct_label nta_code
#>    <chr>    <chr>           <dbl> <chr>     <chr>       <chr>  <chr>    <chr>   
#>  1 3600500… 005                 2 Bronx     2001901     001901 19.01    BX0101  
#>  2 3600500… 005                 2 Bronx     2001902     001902 19.02    BX0101  
#>  3 3600500… 005                 2 Bronx     2001903     001903 19.03    BX0101  
#>  4 3600500… 005                 2 Bronx     2002300     002300 23       BX0101  
#>  5 3600500… 005                 2 Bronx     2002500     002500 25       BX0101  
#>  6 3600500… 005                 2 Bronx     2002701     002701 27.01    BX0101  
#>  7 3600500… 005                 2 Bronx     2002702     002702 27.02    BX0101  
#>  8 3600500… 005                 2 Bronx     2003100     003100 31       BX0101  
#>  9 3600500… 005                 2 Bronx     2003300     003300 33       BX0101  
#> 10 3600500… 005                 2 Bronx     2003500     003500 35       BX0101  
#> # ℹ 2,317 more rows
#> # ℹ 6 more variables: nta_type <dbl>, nta_name <chr>, nta_abbrev <chr>,
#> #   cdta_code <chr>, cdta_type <chr>, cdta_name <chr>
```

## Shoreline with Adjacent Areas

``` r
nyc_shoclip_sf
#> Simple feature collection with 7426 features and 15 fields (with 222 geometries empty)
#> Geometry type: GEOMETRY
#> Dimension:     XY
#> Bounding box:  xmin: 913175.1 ymin: 120128.4 xmax: 1067338 ymax: 272744.1
#> Projected CRS: NAD83 / New York Long Island (ftUS)
#> First 10 features:
#>   SOURCE_ID SRC_DATE HOR_ACC  INFORM                     ATTRIBUTE VER_DATE
#> 1      <NA> 19991015     2.5    <NA> Man-made.Bulkhead Or Sea Wall     <NA>
#> 2      <NA> 19991015     2.5 Culvert Man-made.Bulkhead Or Sea Wall     <NA>
#> 3      <NA> 19991015     2.5 Culvert Man-made.Bulkhead Or Sea Wall     <NA>
#> 4      <NA> 20140601     1.7    <NA>                 Man-made.Ramp     <NA>
#> 5      <NA> 20140607     0.6    <NA> Man-made.Bulkhead Or Sea Wall     <NA>
#> 6      <NA> 20140607     0.6 Culvert Man-made.Bulkhead Or Sea Wall     <NA>
#>   SRC_RESOLU         DATA_SOURC EX_METH EXT_METH DAT_SET_CR SRC_CITA FIPS_ALPHA
#> 1          0 Aerial Photography  Stereo   Stereo       NOAA     <NA>         NY
#> 2          0 Aerial Photography  Stereo   Stereo       NOAA     <NA>         NY
#> 3          0 Aerial Photography  Stereo   Stereo       NOAA     <NA>         NY
#> 4          0  Satellite Imagery    Mono     Mono       NOAA     <NA>         NY
#> 5          0 Aerial Photography  Stereo   Stereo       NOAA     <NA>         NY
#> 6          0 Aerial Photography  Stereo   Stereo       NOAA     <NA>         NY
#>       NOAA_Regio   Shape_Leng                       geometry
#> 1 North Atlantic 1.237811e-04 LINESTRING (1007371 161954....
#> 2 North Atlantic 2.563477e-04 LINESTRING (1031387 179714....
#> 3 North Atlantic 2.568629e-04 LINESTRING (1031458 179733....
#> 4 North Atlantic 5.014010e-05 LINESTRING (1011262 167285....
#> 5 North Atlantic 3.591639e-05 LINESTRING (1022894 179553....
#> 6 North Atlantic 9.933048e-05 LINESTRING (1022867 179537,...
#>  [ reached 'max' / getOption("max.print") -- omitted 4 rows ]
```
…
